%YAML 1.1
%TAG !u! tag:unity3d.com,2011:
--- !u!1045 &1
EditorBuildSettings:
  m_ObjectHideFlags: 0
  serializedVersion: 2
  m_Scenes:
  - enabled: 1
    path: Assets/Scenes/MenuPrincipal.unity
    guid: 32a0d87f0b1edce4492d23d40f7781a7
  - enabled: 1
    path: Assets/Scenes/MqttLampada3D.unity
    guid: 8cac7205fca987642b89e6d794a40a42
  - enabled: 1
    path: Assets/Scenes/MenuAgenda.unity
    guid: fd1ff28392cb0bd4c91c2c89b61f4e99
